…
## `select()`

1. Make a data frame containing the columns `year`, `lifeExp`, `country` from 
the `gapminder` data, in that order.


```r
attach(gapminder)
select(gapminder, year, lifeExp, country)
```

```
## # A tibble: 1,704 x 3
##     year lifeExp country    
##    <int>   <dbl> <fct>      
##  1  1952    28.8 Afghanistan
##  2  1957    30.3 Afghanistan
##  3  1962    32.0 Afghanistan
##  4  1967    34.0 Afghanistan
##  5  1972    36.1 Afghanistan
##  6  1977    38.4 Afghanistan
##  7  1982    39.9 Afghanistan
##  8  1987    40.8 Afghanistan
##  9  1992    41.7 Afghanistan
## 10  1997    41.8 Afghanistan
## # … with 1,694 more rows
```



2. Select all variables, from `country` to `lifeExp`.


```r
# This will work:
select(gapminder, country, continent, year, lifeExp)
```

```
## # A tibble: 1,704 x 4
##    country     continent  year lifeExp
##    <fct>       <fct>     <int>   <dbl>
##  1 Afghanistan Asia       1952    28.8
##  2 Afghanistan Asia       1957    30.3
##  3 Afghanistan Asia       1962    32.0
##  4 Afghanistan Asia       1967    34.0
##  5 Afghanistan Asia       1972    36.1
##  6 Afghanistan Asia       1977    38.4
##  7 Afghanistan Asia       1982    39.9
##  8 Afghanistan Asia       1987    40.8
##  9 Afghanistan Asia       1992    41.7
## 10 Afghanistan Asia       1997    41.8
## # … with 1,694 more rows
```

```r
# Better way:
select(gapminder, country:lifeExp)
```

```
## # A tibble: 1,704 x 4
##    country     continent  year lifeExp
##    <fct>       <fct>     <int>   <dbl>
##  1 Afghanistan Asia       1952    28.8
##  2 Afghanistan Asia       1957    30.3
##  3 Afghanistan Asia       1962    32.0
##  4 Afghanistan Asia       1967    34.0
##  5 Afghanistan Asia       1972    36.1
##  6 Afghanistan Asia       1977    38.4
##  7 Afghanistan Asia       1982    39.9
##  8 Afghanistan Asia       1987    40.8
##  9 Afghanistan Asia       1992    41.7
## 10 Afghanistan Asia       1997    41.8
## # … with 1,694 more rows
```

3. Select all variables, except `lifeExp`.


```r
select(gapminder, -c(lifeExp))
```

```
## # A tibble: 1,704 x 5
##    country     continent  year      pop gdpPercap
##    <fct>       <fct>     <int>    <int>     <dbl>
##  1 Afghanistan Asia       1952  8425333      779.
##  2 Afghanistan Asia       1957  9240934      821.
##  3 Afghanistan Asia       1962 10267083      853.
##  4 Afghanistan Asia       1967 11537966      836.
##  5 Afghanistan Asia       1972 13079460      740.
##  6 Afghanistan Asia       1977 14880372      786.
##  7 Afghanistan Asia       1982 12881816      978.
##  8 Afghanistan Asia       1987 13867957      852.
##  9 Afghanistan Asia       1992 16317921      649.
## 10 Afghanistan Asia       1997 22227415      635.
## # … with 1,694 more rows
```

4. Put `continent` first. Hint: use the `everything()` function.


```r
select(gapminder, continent, everything())
```

```
## # A tibble: 1,704 x 6
##    continent country      year lifeExp      pop gdpPercap
##    <fct>     <fct>       <int>   <dbl>    <int>     <dbl>
##  1 Asia      Afghanistan  1952    28.8  8425333      779.
##  2 Asia      Afghanistan  1957    30.3  9240934      821.
##  3 Asia      Afghanistan  1962    32.0 10267083      853.
##  4 Asia      Afghanistan  1967    34.0 11537966      836.
##  5 Asia      Afghanistan  1972    36.1 13079460      740.
##  6 Asia      Afghanistan  1977    38.4 14880372      786.
##  7 Asia      Afghanistan  1982    39.9 12881816      978.
##  8 Asia      Afghanistan  1987    40.8 13867957      852.
##  9 Asia      Afghanistan  1992    41.7 16317921      649.
## 10 Asia      Afghanistan  1997    41.8 22227415      635.
## # … with 1,694 more rows
```


5. Rename `continent` to `cont`.


```r
# compare
select(gapminder, cont = continent) #can add everything() here to retain errthang
```

```
## # A tibble: 1,704 x 1
##    cont 
##    <fct>
##  1 Asia 
##  2 Asia 
##  3 Asia 
##  4 Asia 
##  5 Asia 
##  6 Asia 
##  7 Asia 
##  8 Asia 
##  9 Asia 
## 10 Asia 
## # … with 1,694 more rows
```

```r
rename(gapminder, cont = continent) #doesnt change anything else here...
```

```
## # A tibble: 1,704 x 6
##    country     cont   year lifeExp      pop gdpPercap
##    <fct>       <fct> <int>   <dbl>    <int>     <dbl>
##  1 Afghanistan Asia   1952    28.8  8425333      779.
##  2 Afghanistan Asia   1957    30.3  9240934      821.
##  3 Afghanistan Asia   1962    32.0 10267083      853.
##  4 Afghanistan Asia   1967    34.0 11537966      836.
##  5 Afghanistan Asia   1972    36.1 13079460      740.
##  6 Afghanistan Asia   1977    38.4 14880372      786.
##  7 Afghanistan Asia   1982    39.9 12881816      978.
##  8 Afghanistan Asia   1987    40.8 13867957      852.
##  9 Afghanistan Asia   1992    41.7 16317921      649.
## 10 Afghanistan Asia   1997    41.8 22227415      635.
## # … with 1,694 more rows
```
…
## `arrange()`

1. Order by year.


```r
arrange(gapminder, year)
```

```
## # A tibble: 1,704 x 6
##    country     continent  year lifeExp      pop gdpPercap
##    <fct>       <fct>     <int>   <dbl>    <int>     <dbl>
##  1 Afghanistan Asia       1952    28.8  8425333      779.
##  2 Albania     Europe     1952    55.2  1282697     1601.
##  3 Algeria     Africa     1952    43.1  9279525     2449.
##  4 Angola      Africa     1952    30.0  4232095     3521.
##  5 Argentina   Americas   1952    62.5 17876956     5911.
##  6 Australia   Oceania    1952    69.1  8691212    10040.
##  7 Austria     Europe     1952    66.8  6927772     6137.
##  8 Bahrain     Asia       1952    50.9   120447     9867.
##  9 Bangladesh  Asia       1952    37.5 46886859      684.
## 10 Belgium     Europe     1952    68    8730405     8343.
## # … with 1,694 more rows
```

2. Order by year, in descending order.


```r
arrange(gapminder, -year)
```

```
## # A tibble: 1,704 x 6
##    country     continent  year lifeExp       pop gdpPercap
##    <fct>       <fct>     <int>   <dbl>     <int>     <dbl>
##  1 Afghanistan Asia       2007    43.8  31889923      975.
##  2 Albania     Europe     2007    76.4   3600523     5937.
##  3 Algeria     Africa     2007    72.3  33333216     6223.
##  4 Angola      Africa     2007    42.7  12420476     4797.
##  5 Argentina   Americas   2007    75.3  40301927    12779.
##  6 Australia   Oceania    2007    81.2  20434176    34435.
##  7 Austria     Europe     2007    79.8   8199783    36126.
##  8 Bahrain     Asia       2007    75.6    708573    29796.
##  9 Bangladesh  Asia       2007    64.1 150448339     1391.
## 10 Belgium     Europe     2007    79.4  10392226    33693.
## # … with 1,694 more rows
```

3. Order by year, then by life expectancy.


```r
arrange(gapminder, year, lifeExp)
```

```
## # A tibble: 1,704 x 6
##    country       continent  year lifeExp     pop gdpPercap
##    <fct>         <fct>     <int>   <dbl>   <int>     <dbl>
##  1 Afghanistan   Asia       1952    28.8 8425333      779.
##  2 Gambia        Africa     1952    30    284320      485.
##  3 Angola        Africa     1952    30.0 4232095     3521.
##  4 Sierra Leone  Africa     1952    30.3 2143249      880.
##  5 Mozambique    Africa     1952    31.3 6446316      469.
##  6 Burkina Faso  Africa     1952    32.0 4469979      543.
##  7 Guinea-Bissau Africa     1952    32.5  580653      300.
##  8 Yemen, Rep.   Asia       1952    32.5 4963829      782.
##  9 Somalia       Africa     1952    33.0 2526994     1136.
## 10 Guinea        Africa     1952    33.6 2664249      510.
## # … with 1,694 more rows
```
…
### tidyverse method

Now using with pipes:


```r
# alter the below to include 2 "pipes"
arrange(select(gapminder, year, lifeExp, country), year, lifeExp)
```

```
## # A tibble: 1,704 x 3
##     year lifeExp country      
##    <int>   <dbl> <fct>        
##  1  1952    28.8 Afghanistan  
##  2  1952    30   Gambia       
##  3  1952    30.0 Angola       
##  4  1952    30.3 Sierra Leone 
##  5  1952    31.3 Mozambique   
##  6  1952    32.0 Burkina Faso 
##  7  1952    32.5 Guinea-Bissau
##  8  1952    32.5 Yemen, Rep.  
##  9  1952    33.0 Somalia      
## 10  1952    33.6 Guinea       
## # … with 1,694 more rows
```

```r
### with pipez
select(gapminder, year, lifeExp, country)%>% arrange(year, lifeExp)
```

```
## # A tibble: 1,704 x 3
##     year lifeExp country      
##    <int>   <dbl> <fct>        
##  1  1952    28.8 Afghanistan  
##  2  1952    30   Gambia       
##  3  1952    30.0 Angola       
##  4  1952    30.3 Sierra Leone 
##  5  1952    31.3 Mozambique   
##  6  1952    32.0 Burkina Faso 
##  7  1952    32.5 Guinea-Bissau
##  8  1952    32.5 Yemen, Rep.  
##  9  1952    33.0 Somalia      
## 10  1952    33.6 Guinea       
## # … with 1,694 more rows
```
…
# Transforming datasets

## `filter()`

1. Only take data with population greater than 100 million.


```r
gapminder %>%
  filter(pop > 1000000)
```

```
## # A tibble: 1,524 x 6
##    country     continent  year lifeExp      pop gdpPercap
##    <fct>       <fct>     <int>   <dbl>    <int>     <dbl>
##  1 Afghanistan Asia       1952    28.8  8425333      779.
##  2 Afghanistan Asia       1957    30.3  9240934      821.
##  3 Afghanistan Asia       1962    32.0 10267083      853.
##  4 Afghanistan Asia       1967    34.0 11537966      836.
##  5 Afghanistan Asia       1972    36.1 13079460      740.
##  6 Afghanistan Asia       1977    38.4 14880372      786.
##  7 Afghanistan Asia       1982    39.9 12881816      978.
##  8 Afghanistan Asia       1987    40.8 13867957      852.
##  9 Afghanistan Asia       1992    41.7 16317921      649.
## 10 Afghanistan Asia       1997    41.8 22227415      635.
## # … with 1,514 more rows
```

2. Your turn: of those rows filtered from step 1., only take data from Asia.


```r
gapminder %>%
  filter(pop > 1000000) %>%
    filter(continent=='Asia')
```

```
## # A tibble: 369 x 6
##    country     continent  year lifeExp      pop gdpPercap
##    <fct>       <fct>     <int>   <dbl>    <int>     <dbl>
##  1 Afghanistan Asia       1952    28.8  8425333      779.
##  2 Afghanistan Asia       1957    30.3  9240934      821.
##  3 Afghanistan Asia       1962    32.0 10267083      853.
##  4 Afghanistan Asia       1967    34.0 11537966      836.
##  5 Afghanistan Asia       1972    36.1 13079460      740.
##  6 Afghanistan Asia       1977    38.4 14880372      786.
##  7 Afghanistan Asia       1982    39.9 12881816      978.
##  8 Afghanistan Asia       1987    40.8 13867957      852.
##  9 Afghanistan Asia       1992    41.7 16317921      649.
## 10 Afghanistan Asia       1997    41.8 22227415      635.
## # … with 359 more rows
```

```r
# Or  
subset(gapminder, continent=='Asia' & pop > 1000000)
```

```
## # A tibble: 369 x 6
##    country     continent  year lifeExp      pop gdpPercap
##    <fct>       <fct>     <int>   <dbl>    <int>     <dbl>
##  1 Afghanistan Asia       1952    28.8  8425333      779.
##  2 Afghanistan Asia       1957    30.3  9240934      821.
##  3 Afghanistan Asia       1962    32.0 10267083      853.
##  4 Afghanistan Asia       1967    34.0 11537966      836.
##  5 Afghanistan Asia       1972    36.1 13079460      740.
##  6 Afghanistan Asia       1977    38.4 14880372      786.
##  7 Afghanistan Asia       1982    39.9 12881816      978.
##  8 Afghanistan Asia       1987    40.8 13867957      852.
##  9 Afghanistan Asia       1992    41.7 16317921      649.
## 10 Afghanistan Asia       1997    41.8 22227415      635.
## # … with 359 more rows
```
…
```
mutate(tibble, NEW_COLUMN_NAME = CALCULATION)
```

Let's get: 

- GDP by multiplying GPD per capita with population, and

```r
gapminder %>%
  mutate(GDP = gdpPercap*pop)
```

```
## # A tibble: 1,704 x 7
##    country     continent  year lifeExp      pop gdpPercap          GDP
##    <fct>       <fct>     <int>   <dbl>    <int>     <dbl>        <dbl>
##  1 Afghanistan Asia       1952    28.8  8425333      779.  6567086330.
##  2 Afghanistan Asia       1957    30.3  9240934      821.  7585448670.
##  3 Afghanistan Asia       1962    32.0 10267083      853.  8758855797.
##  4 Afghanistan Asia       1967    34.0 11537966      836.  9648014150.
##  5 Afghanistan Asia       1972    36.1 13079460      740.  9678553274.
##  6 Afghanistan Asia       1977    38.4 14880372      786. 11697659231.
##  7 Afghanistan Asia       1982    39.9 12881816      978. 12598563401.
##  8 Afghanistan Asia       1987    40.8 13867957      852. 11820990309.
##  9 Afghanistan Asia       1992    41.7 16317921      649. 10595901589.
## 10 Afghanistan Asia       1997    41.8 22227415      635. 14121995875.
## # … with 1,694 more rows
```
…
Notice the backwards compatibility! No need for loops!

Try the same thing, but with `transmute` (drops all other variables). 


```r
gapminder %>%
  transmute(GDP = gdpPercap*pop) #now only has just the GDP vbl we previously
```

```
## # A tibble: 1,704 x 1
##             GDP
##           <dbl>
##  1  6567086330.
##  2  7585448670.
##  3  8758855797.
##  4  9648014150.
##  5  9678553274.
##  6 11697659231.
##  7 12598563401.
##  8 11820990309.
##  9 10595901589.
## 10 14121995875.
## # … with 1,694 more rows
```
…
Let's do some practice with grouping (and ungrouping) and summarizing data frames!

1. (a) What's the minimum life expectancy for each continent and each year? (b) Add the corresponding country to the tibble, too. (c) Arrange by min life expectancy.


```r
gapminder %>% 
  group_by(continent, year) %>% 
  mutate(min_life = min(lifeExp)) %>% 
  select(continent, year, min_life)
```

```
## # A tibble: 1,704 x 3
## # Groups:   continent, year [60]
##    continent  year min_life
##    <fct>     <int>    <dbl>
##  1 Asia       1952     28.8
##  2 Asia       1957     30.3
##  3 Asia       1962     32.0
##  4 Asia       1967     34.0
##  5 Asia       1972     36.1
##  6 Asia       1977     31.2
##  7 Asia       1982     39.9
##  8 Asia       1987     40.8
##  9 Asia       1992     41.7
## 10 Asia       1997     41.8
## # … with 1,694 more rows
```
2. Let's compute the mean Agreeableness score across items for each participant 
in the `psych::bfi` dataset. Be sure to handle `NA`!


```r
psych::bfi %>%
  as_tibble() %>% 
  select(A1:A5) %>% 
  rowwise() %>% 
  mutate(A_mean = mean(c(A1, A2, A3, A4, A5), na.rm = TRUE)) %>% 
  ungroup()
```

```
## # A tibble: 2,800 x 6
##       A1    A2    A3    A4    A5 A_mean
##    <int> <int> <int> <int> <int>  <dbl>
##  1     2     4     3     4     4    3.4
##  2     2     4     5     2     5    3.6
##  3     5     4     5     4     4    4.4
##  4     4     4     6     5     5    4.8
##  5     2     3     3     4     5    3.4
##  6     6     6     5     6     5    5.6
##  7     2     5     5     3     5    4  
##  8     4     3     1     5     1    2.8
##  9     4     3     6     3     3    3.8
## 10     2     5     6     6     5    4.8
## # … with 2,790 more rows
```
…
```r
psych::bfi %>% 
  as_tibble() %>% 
  select(A1:O5) %>% 
  mutate(A_mn = rowMeans(select(., A1:A5),na.rm = TRUE), A_sd = sd(c(A1:A5),na.rm = TRUE), A_min = min(c(A1:A5), na.rm=TRUE)) %>% 
  mutate(E_mn = rowMeans(select(., E1:E5),na.rm = TRUE), E_sd = sd(c(E1:E5), na.rm = TRUE), E_min = min(c(E1:E5), na.rm=TRUE)) %>%
  mutate(N_mn = rowMeans(select(., N1:N5),na.rm = TRUE), N_sd = sd(c(N1:N5), na.rm = TRUE), N_min = min(c(N1:N5), na.rm=TRUE)) %>%
   mutate(O_mn = rowMeans(select(., O1:O5),na.rm = TRUE), O_sd = sd(c(O1:O5),na.rm = TRUE), O_min = min(c(O1:O5), na.rm=TRUE)) %>%
   mutate(C_mn = rowMeans(select(., C1:C5),na.rm = TRUE), C_sd = sd(c(C1:C5),na.rm = TRUE), C_min = min(c(C1:C5), na.rm=TRUE))%>%
     ungroup()
```

```
## # A tibble: 2,800 x 40
##       A1    A2    A3    A4    A5    C1    C2    C3    C4    C5    E1    E2    E3
##    <int> <int> <int> <int> <int> <int> <int> <int> <int> <int> <int> <int> <int>
##  1     2     4     3     4     4     2     3     3     4     4     3     3     3
##  2     2     4     5     2     5     5     4     4     3     4     1     1     6
##  3     5     4     5     4     4     4     5     4     2     5     2     4     4
##  4     4     4     6     5     5     4     4     3     5     5     5     3     4
##  5     2     3     3     4     5     4     4     5     3     2     2     2     5
##  6     6     6     5     6     5     6     6     6     1     3     2     1     6
##  7     2     5     5     3     5     5     4     4     2     3     4     3     4
##  8     4     3     1     5     1     3     2     4     2     4     3     6     4
##  9     4     3     6     3     3     6     6     3     4     5     5     3    NA
## 10     2     5     6     6     5     6     5     6     2     1     2     2     4
## # … with 2,790 more rows, and 27 more variables: E4 <int>, E5 <int>, N1 <int>,
## #   N2 <int>, N3 <int>, N4 <int>, N5 <int>, O1 <int>, O2 <int>, O3 <int>,
## #   O4 <int>, O5 <int>, A_mn <dbl>, A_sd <dbl>, A_min <int>, E_mn <dbl>,
## #   E_sd <dbl>, E_min <int>, N_mn <dbl>, N_sd <dbl>, N_min <int>, O_mn <dbl>,
## #   O_sd <dbl>, O_min <int>, C_mn <dbl>, C_sd <dbl>, C_min <int>
```
…
`rowMeans()` computes the mean of each row of a data frame. We can use it by
putting `select()` inside of `mutate()`:


```r
psych::bfi %>% 
  as_tibble() %>% 
  select(A1:A5) %>% 
  mutate(A_mn = rowMeans(select(., A1:A5)),
         A_mn2 = rowMeans(select(., starts_with("A", ignore.case = FALSE))))
```

```
## # A tibble: 2,800 x 7
##       A1    A2    A3    A4    A5  A_mn A_mn2
##    <int> <int> <int> <int> <int> <dbl> <dbl>
##  1     2     4     3     4     4   3.4   3.4
##  2     2     4     5     2     5   3.6   3.6
##  3     5     4     5     4     4   4.4   4.4
##  4     4     4     6     5     5   4.8   4.8
##  5     2     3     3     4     5   3.4   3.4
##  6     6     6     5     6     5   5.6   5.6
##  7     2     5     5     3     5   4     4  
##  8     4     3     1     5     1   2.8   2.8
##  9     4     3     6     3     3   3.8   3.8
## 10     2     5     6     6     5   4.8   4.8
## # … with 2,790 more rows
```

Some functions are **vectorized**, so you don't need `rowwise()`. 
For example, `pmin()` computes the "parallel min" across the vectors it receives:


```r
psych::bfi %>% 
  as_tibble() %>% 
  select(A1:A5) %>% 
  mutate(A_min = pmin(A1, A2, A3, A4, A5))
```

```
## # A tibble: 2,800 x 6
##       A1    A2    A3    A4    A5 A_min
##    <int> <int> <int> <int> <int> <int>
##  1     2     4     3     4     4     2
##  2     2     4     5     2     5     2
##  3     5     4     5     4     4     4
##  4     4     4     6     5     5     4
##  5     2     3     3     4     5     2
##  6     6     6     5     6     5     5
##  7     2     5     5     3     5     2
##  8     4     3     1     5     1     1
##  9     4     3     6     3     3     3
## 10     2     5     6     6     5     2
## # … with 2,790 more rows
```
…
