…
  
__mutate() either changes an existing column or adds a new one. summarise() calculates a single value (per group)!!!!!!!!__
  
Wrong:

```r
gapminder %>% 
  as_tibble() %>% 
  group_by(continent, year) %>% 
  mutate(min_life = min(lifeExp)) %>% 
  select(continent, year, country, min_life) %>% arrange(min_life)
```

```
## # A tibble: 1,704 x 4
## # Groups:   continent, year [60]
##    continent  year country                  min_life
##    <fct>     <int> <fct>                       <dbl>
##  1 Africa     1992 Algeria                      23.6
##  2 Africa     1992 Angola                       23.6
##  3 Africa     1992 Benin                        23.6
##  4 Africa     1992 Botswana                     23.6
##  5 Africa     1992 Burkina Faso                 23.6
##  6 Africa     1992 Burundi                      23.6
##  7 Africa     1992 Cameroon                     23.6
##  8 Africa     1992 Central African Republic     23.6
##  9 Africa     1992 Chad                         23.6
## 10 Africa     1992 Comoros                      23.6
## # … with 1,694 more rows
```

Right:

  * However, getting country back into the tibble is still a mystery...

```r
gapminder %>% 
  select(continent, year, country, lifeExp) %>% 
  group_by(continent, year) %>% 
  summarise(min_life = min(lifeExp))
```

```
## # A tibble: 60 x 3
## # Groups:   continent [5]
##    continent  year min_life
##    <fct>     <int>    <dbl>
##  1 Africa     1952     30  
##  2 Africa     1957     31.6
##  3 Africa     1962     32.8
##  4 Africa     1967     34.1
##  5 Africa     1972     35.4
##  6 Africa     1977     36.8
##  7 Africa     1982     38.4
##  8 Africa     1987     39.9
##  9 Africa     1992     23.6
## 10 Africa     1997     36.1
## # … with 50 more rows
```
…
```r
psych::bfi %>% 
  rownames_to_column(var = "id") %>%  #UNIQUE ID 
  as_tibble() %>% 
  select(id, A1:A5, C1:C5) %>% 
  rowwise() %>% 
  mutate(A_mean = mean(c(A1, A2, A3, A4, A5), na.rm = TRUE)) %>% 
  mutate(C_mean = mean(c(C1, C2, C3, C4, C5), na.rm = TRUE)) %>% 
  ungroup()
```

```
## # A tibble: 2,800 x 13
##    id       A1    A2    A3    A4    A5    C1    C2    C3    C4    C5 A_mean
##    <chr> <int> <int> <int> <int> <int> <int> <int> <int> <int> <int>  <dbl>
##  1 61617     2     4     3     4     4     2     3     3     4     4    3.4
##  2 61618     2     4     5     2     5     5     4     4     3     4    3.6
##  3 61620     5     4     5     4     4     4     5     4     2     5    4.4
##  4 61621     4     4     6     5     5     4     4     3     5     5    4.8
##  5 61622     2     3     3     4     5     4     4     5     3     2    3.4
##  6 61623     6     6     5     6     5     6     6     6     1     3    5.6
##  7 61624     2     5     5     3     5     5     4     4     2     3    4  
##  8 61629     4     3     1     5     1     3     2     4     2     4    2.8
##  9 61630     4     3     6     3     3     6     6     3     4     5    3.8
## 10 61633     2     5     6     6     5     6     5     6     2     1    4.8
## # … with 2,790 more rows, and 1 more variable: C_mean <dbl>
```
…
```r
psych::bfi %>%
  as_tibble() %>% 
  select(A1:A5) %>% 
  rowwise() %>% 
  mutate(A_mean = mean(c(A1, A2, A3, A4, A5), na.rm = TRUE),
         A_sd = sd(c(A1, A2, A3, A4, A5), na.rm = TRUE),
         A_min = min(c(A1, A2, A3, A4, A5), na.rm = TRUE)) %>%
  select(A_mean, A_sd, A_min, everything()) %>%
  ungroup() 
```

```
## # A tibble: 2,800 x 8
##    A_mean  A_sd A_min    A1    A2    A3    A4    A5
##     <dbl> <dbl> <int> <int> <int> <int> <int> <int>
##  1    3.4 0.894     2     2     4     3     4     4
##  2    3.6 1.52      2     2     4     5     2     5
##  3    4.4 0.548     4     5     4     5     4     4
##  4    4.8 0.837     4     4     4     6     5     5
##  5    3.4 1.14      2     2     3     3     4     5
##  6    5.6 0.548     5     6     6     5     6     5
##  7    4   1.41      2     2     5     5     3     5
##  8    2.8 1.79      1     4     3     1     5     1
##  9    3.8 1.30      3     4     3     6     3     3
## 10    4.8 1.64      2     2     5     6     6     5
## # … with 2,790 more rows
```


Some functions are **vectorized**, so you don't need `rowwise()`. 
For example, `pmin()` computes the "parallel min" across the vectors it receives:


```r
psych::bfi %>% 
  as_tibble() %>% 
  select(A1:A5) %>% 
  mutate(A_min = pmin(A1, A2, A3, A4, A5))
```

```
## # A tibble: 2,800 x 6
##       A1    A2    A3    A4    A5 A_min
##    <int> <int> <int> <int> <int> <int>
##  1     2     4     3     4     4     2
##  2     2     4     5     2     5     2
##  3     5     4     5     4     4     4
##  4     4     4     6     5     5     4
##  5     2     3     3     4     5     2
##  6     6     6     5     6     5     5
##  7     2     5     5     3     5     2
##  8     4     3     1     5     1     1
##  9     4     3     6     3     3     3
## 10     2     5     6     6     5     2
## # … with 2,790 more rows
```
…
`rowMeans()` computes the mean of each row of a data frame. We can use it by
putting `select()` inside of `mutate()`:



```r
psych::bfi %>% 
  as_tibble() %>% 
  select(A1:A5) %>% 
  mutate(A_mn = rowMeans(select(., A1:A5)),
         A_mn2 = rowMeans(select(., starts_with("A", ignore.case = FALSE))))
```

```
## # A tibble: 2,800 x 7
##       A1    A2    A3    A4    A5  A_mn A_mn2
##    <int> <int> <int> <int> <int> <dbl> <dbl>
##  1     2     4     3     4     4   3.4   3.4
##  2     2     4     5     2     5   3.6   3.6
##  3     5     4     5     4     4   4.4   4.4
##  4     4     4     6     5     5   4.8   4.8
##  5     2     3     3     4     5   3.4   3.4
##  6     6     6     5     6     5   5.6   5.6
##  7     2     5     5     3     5   4     4  
##  8     4     3     1     5     1   2.8   2.8
##  9     4     3     6     3     3   3.8   3.8
## 10     2     5     6     6     5   4.8   4.8
## # … with 2,790 more rows
```
…
